dump.vcd
$date
Tue Mar 10 20:59:15 2026
$end
$version
Riviera-PRO Version 2025.04.139.9738
$end
$timescale
1 ps
$end

$scope module tb_top $end
$var reg 1 ! clk $end
$var parameter 32 " DATA_W [31:0] $end
$var parameter 32 # DEPTH [31:0] $end
$var parameter 32 $ COUNT_W [31:0] $end

$scope module vif $end
$var reg 1 % rst_n $end
$var reg 1 & wr_en $end
$var reg 1 ' rd_en $end
$var reg 8 ( wdata [7:0] $end
$var reg 8 ) rdata [7:0] $end
$var reg 1 * full $end
$var reg 1 + empty $end
$var reg 5 , count [4:0] $end
$var reg 1 - overflow $end
$var reg 1 . underflow $end
$var reg 1 / rst_n $end
$var reg 1 0 wr_en $end
$var reg 1 1 rd_en $end
$var reg 8 2 wdata [7:0] $end
$var reg 8 3 rdata [7:0] $end
$var reg 1 4 full $end
$var reg 1 5 empty $end
$var reg 5 6 count [4:0] $end
$var reg 1 7 overflow $end
$var reg 1 8 underflow $end
$var reg 1 9 rst_n $end
$var reg 1 : wr_en $end
$var reg 1 ; rd_en $end
$var reg 8 < wdata [7:0] $end
$var reg 8 = rdata [7:0] $end
$var reg 1 > full $end
$var reg 1 ? empty $end
$var reg 5 @ count [4:0] $end
$var reg 1 A overflow $end
$var reg 1 B underflow $end
$var parameter 32 C DATA_W [31:0] $end
$var parameter 32 D COUNT_W [31:0] $end
$upscope $end


$scope module dut $end
$var wire 1 E clk $end
$var wire 1 F rst_n $end
$var wire 1 G wr_en $end
$var wire 1 H rd_en $end
$var wire 8 I wdata [7:0] $end
$var wire 1 J do_write $end
$var wire 1 K do_read $end
$var reg 8 L rdata [7:0] $end
$var reg 1 M full $end
$var reg 1 N empty $end
$var reg 5 O count [4:0] $end
$var reg 1 P overflow $end
$var reg 1 Q underflow $end
$var reg 4 R wptr [3:0] $end
$var reg 4 S rptr [3:0] $end
$var parameter 32 T DATA_W [31:0] $end
$var parameter 32 U DEPTH [31:0] $end
$var parameter 32 V ADDR_W [31:0] $end
$upscope $end


$scope module sva_i $end
$var wire 1 W do_write $end
$var wire 1 X do_read $end
$var parameter 32 Y DEPTH [31:0] $end
$upscope $end

$upscope $end


$scope module uvm_pkg $end
$var integer 32 Z UVM_UNBOUNDED_CONNECTIONS $end
$var reg 1 [ uvm_start_uvm_declarations $end
$var integer 32 \ uvm_global_random_seed $end
$var parameter 32 ] UVM_HDL_MAX_WIDTH [31:0] $end
$var parameter 32 ^ UVM_STREAMBITS [31:0] $end
$var parameter 32 _ UVM_RADIX [31:0] $end
$var parameter 32 ` UVM_MACRO_NUMFLAGS [31:0] $end
$var parameter 32 a UVM_DEFAULT [31:0] $end
$var parameter 32 b UVM_ALL_ON [31:0] $end
$var parameter 32 c UVM_FLAGS_ON [31:0] $end
$var parameter 32 d UVM_FLAGS_OFF [31:0] $end
$var parameter 32 e UVM_COPY [31:0] $end
$var parameter 32 f UVM_NOCOPY [31:0] $end
$var parameter 32 g UVM_COMPARE [31:0] $end
$var parameter 32 h UVM_NOCOMPARE [31:0] $end
$var parameter 32 i UVM_PRINT [31:0] $end
$var parameter 32 j UVM_NOPRINT [31:0] $end
$var parameter 32 k UVM_RECORD [31:0] $end
$var parameter 32 l UVM_NORECORD [31:0] $end
$var parameter 32 m UVM_PACK [31:0] $end
$var parameter 32 n UVM_NOPACK [31:0] $end
$var parameter 32 o UVM_PHYSICAL [31:0] $end
$var parameter 32 p UVM_ABSTRACT [31:0] $end
$var parameter 32 q UVM_READONLY [31:0] $end
$var parameter 32 r UVM_NODEFPRINT [31:0] $end
$var parameter 32 s UVM_MACRO_EXTRAS [31:0] $end
$var parameter 32 t UVM_FLAGS [31:0] $end
$var parameter 32 u UVM_UNPACK [31:0] $end
$var parameter 32 v UVM_CHECK_FIELDS [31:0] $end
$var parameter 32 w UVM_END_DATA_EXTRA [31:0] $end
$var parameter 32 x UVM_START_FUNCS [31:0] $end
$var parameter 32 y UVM_SET [31:0] $end
$var parameter 32 z UVM_SETINT [31:0] $end
$var parameter 32 { UVM_SETOBJ [31:0] $end
$var parameter 32 | UVM_SETSTR [31:0] $end
$var parameter 32 } UVM_END_FUNCS [31:0] $end
$var parameter 32 ~ UVM_STR_CRC_POLYNOMIAL [31:0] $end
$var parameter 32 !! UVM_STDOUT [31:0] $end
$var parameter 32 "! UVM_LOG_UVM_RM_RECORD [31:0] $end
$var parameter 32 #! UVM_LINE_WIDTH [31:0] $end
$var parameter 32 $! UVM_NUM_LINES [31:0] $end
$var parameter 32 %! UVM_SMALL_STRING [31:0] $end
$var parameter 32 &! UVM_LARGE_STRING [31:0] $end

$scope function uvm_hdl_check_path $end
$var integer 32 '! uvm_hdl_check_path $end
$upscope $end


$scope function uvm_hdl_deposit $end
$var reg 1024 (! value [1023:0] $end
$var integer 32 )! uvm_hdl_deposit $end
$upscope $end


$scope function uvm_hdl_force $end
$var reg 1024 *! value [1023:0] $end
$var integer 32 +! uvm_hdl_force $end
$upscope $end


$scope task uvm_hdl_force_time $end
$var reg 1024 ,! value [1023:0] $end
$var time 64 -! force_time $end
$upscope $end


$scope function uvm_hdl_release_and_read $end
$var reg 1024 .! value [1023:0] $end
$var integer 32 /! uvm_hdl_release_and_read $end
$upscope $end


$scope function uvm_hdl_release $end
$var integer 32 0! uvm_hdl_release $end
$upscope $end


$scope function uvm_hdl_read $end
$var reg 1024 1! value [1023:0] $end
$var integer 32 2! uvm_hdl_read $end
$upscope $end


$scope function uvm_dpi_get_next_arg_c $end
$var integer 32 3! init $end
$upscope $end


$scope function uvm_dpi_get_next_arg $end
$var integer 32 4! init $end
$upscope $end


$scope function uvm_dpi_regcomp $end
$upscope $end


$scope function uvm_dpi_regexec $end
$var integer 32 5! uvm_dpi_regexec $end
$upscope $end


$scope function uvm_dpi_regfree $end
$upscope $end


$scope function uvm_re_match $end
$var integer 32 6! uvm_re_match $end
$upscope $end


$scope function uvm_radix_to_string $end
$var integer 32 7! radix $end
$upscope $end


$scope function uvm_instance_scope $end
$var reg 8 8! c [7:0] $end
$var integer 32 9! pos $end
$upscope $end


$scope function uvm_oneway_hash $end
$var integer 32 :! seed $end
$var integer 32 ;! uvm_oneway_hash $end
$var reg 1 <! msb $end
$var reg 8 =! current_byte [7:0] $end
$var reg 32 >! crc1 [31:0] $end
$upscope $end


$scope function uvm_create_random_seed $end
$var integer 32 ?! uvm_create_random_seed $end
$upscope $end


$scope function uvm_leaf_scope $end
$var reg 8 @! scope_separator [7:0] $end
$var reg 8 A! bracket_match [7:0] $end
$var integer 32 B! pos $end
$var integer 32 C! bmatches $end
$upscope $end


$scope function get_radix_string_global $end
$var integer 32 D! radix $end
$upscope $end


$scope function uvm_bitstream_to_string $end
$var reg 4096 E! value [4095:0] $end
$var integer 32 F! size $end
$var integer 32 G! radix $end

$scope begin 13unnblk $end
$var reg 4096 H! _t [4095:0] $end
$upscope $end

$upscope $end


$scope function uvm_integral_to_string $end
$var reg 64 I! value [63:0] $end
$var integer 32 J! size $end
$var integer 32 K! radix $end

$scope begin 15unnblk $end
$var reg 64 L! _t [63:0] $end
$upscope $end

$upscope $end


$scope function uvm_vector_to_string $end
$var reg 4096 M! value [4095:0] $end
$var integer 32 N! size $end
$var integer 32 O! radix $end
$upscope $end


$scope function uvm_get_array_index_int $end
$var reg 1 P! is_wildcard $end
$var integer 32 Q! uvm_get_array_index_int $end
$var integer 32 R! i $end
$upscope $end


$scope function uvm_get_array_index_string $end
$var reg 1 S! is_wildcard $end
$var integer 32 T! i $end
$upscope $end


$scope function uvm_is_array $end
$var reg 1 U! uvm_is_array $end
$upscope $end


$scope function set_global_timeout $end
$var time 64 V! timeout $end
$var reg 1 W! overridable $end
$upscope $end


$scope function set_global_stop_timeout $end
$var time 64 X! timeout $end
$upscope $end


$scope function uvm_report_enabled $end
$var integer 32 Y! verbosity $end
$var reg 2 Z! severity $end
$var integer 32 [! uvm_report_enabled $end
$upscope $end


$scope function uvm_report $end
$var reg 2 \! severity $end
$var integer 32 ]! verbosity $end
$var integer 32 ^! line $end
$var reg 1 _! report_enabled_checked $end
$upscope $end


$scope function m__uvm_report_dpi $end
$var integer 32 `! severity $end
$var integer 32 a! verbosity $end
$var integer 32 b! line $end
$upscope $end


$scope function uvm_report_info $end
$var integer 32 c! verbosity $end
$var integer 32 d! line $end
$var reg 1 e! report_enabled_checked $end
$upscope $end


$scope function uvm_report_warning $end
$var integer 32 f! verbosity $end
$var integer 32 g! line $end
$var reg 1 h! report_enabled_checked $end
$upscope $end


$scope function uvm_report_error $end
$var integer 32 i! verbosity $end
$var integer 32 j! line $end
$var reg 1 k! report_enabled_checked $end
$upscope $end


$scope function uvm_report_fatal $end
$var integer 32 l! verbosity $end
$var integer 32 m! line $end
$var reg 1 n! report_enabled_checked $end
$upscope $end


$scope function uvm_string_to_severity $end
$var reg 2 o! sev $end
$var reg 1 p! uvm_string_to_severity $end
$upscope $end


$scope function set_config_int $end
$var reg 4096 q! value [4095:0] $end
$upscope $end


$scope function set_config_object $end
$var reg 1 r! clone $end
$upscope $end


$scope function uvm_is_match $end
$var reg 1 s! uvm_is_match $end
$upscope $end


$scope function uvm_string_to_bits $end
$var reg 115200 t! uvm_string_to_bits [115199:0] $end
$upscope $end


$scope function uvm_bits_to_string $end
$var reg 115200 u! str [115199:0] $end
$upscope $end


$scope task uvm_wait_for_nba_region $end
$var integer 32 v! nba $end
$var integer 32 w! next_nba $end
$upscope $end

$upscope $end


$scope module std $end

$scope function randomize $end
$var reg 1 x! randomize $end
$upscope $end

$upscope $end

$enddefinitions $end
$dumpvars
0!
b1000 "
b10000 #
b101 $
0%
0&
0'
b0 (
b0 )
0*
1+
b0 ,
0-
0.
x/
00
01
b0 2
bx 3
x4
x5
bx 6
x7
x8
x9
x:
x;
bx <
bx =
x>
x?
bx @
xA
xB
b1000 C
b101 D
0E
0F
0G
0H
b0 I
0J
0K
b0 L
0M
1N
b0 O
0P
0Q
b0 R
b0 S
b1000 T
b10000 U
b100 V
xW
xX
b10000 Y
b11111111111111111111111111111111 Z
1[
b1000011111110111011111100011111 \
b10000000000 ]
b1000000000000 ^
b1111000000000000000000000000 _
b10001 `
b10101010101 a
b101010101 b
b101010101 c
b0 d
b1 e
b10 f
b100 g
b1000 h
b10000 i
b100000 j
b1000000 k
b10000000 l
b100000000 m
b1000000000 n
b10000000000000 o
b100000000000000 p
b1000000000000000 q
b10000000000000000 r
b100000000000000000 s
b100000000000000001 t
b100000000000000010 u
b100000000000000011 v
b100000000000000100 w
b100000000000000101 x
b100000000000000110 y
b100000000000000110 z
b100000000000000111 {
b100000000000001000 |
b100000000000001000 }
b100110000010001110110110110 ~
b1 !!
b1000010 "!
b1111000 #!
b1111000 $!
b1110111111 %!
b11100000111111111 &!
b0 '!
bx (!
b0 )!
bx *!
b0 +!
bx ,!
bx -!
bx .!
b0 /!
b0 0!
bx 1!
b0 2!
b0 3!
b0 4!
b0 5!
b0 6!
b0 7!
b111010 8!
b1000 9!
b1000011111110111011111100011111 :!
b1100110100001001011110010000000 ;!
1<!
b1100010 =!
b10011110000000100111011111011101 >!
b11001100000111011000100000010110 ?!
b0 @!
b0 A!
b0 B!
b0 C!
b0 D!
bx E!
b0 F!
b0 G!
bx H!
bx I!
b0 J!
b0 K!
bx L!
bx M!
b0 N!
b0 O!
0P!
b0 Q!
b0 R!
0S!
b0 T!
0U!
bx V!
0W!
bx X!
b111110100 Y!
b0 Z!
b0 [!
b0 \!
b0 ]!
b0 ^!
0_!
b0 `!
b0 a!
b0 b!
b0 c!
b0 d!
0e!
b0 f!
b0 g!
0h!
b0 i!
b0 j!
0k!
b0 l!
b0 m!
0n!
b0 o!
0p!
bx q!
0r!
0s!
bx t!
bx u!
b100100 v!
b100100 w!
0x!
$end
#5000
1!
1E
0B
0A
b0 @
1?
0>
b0 =
b0 <
0;
0:
09
08
07
b0 6
15
04
b0 3
0W
0X
#10000
0!
0E
#15000
1!
1E
#20000
0!
0E
#25000
1!
1E
#30000
0!
0E
#35000
1!
1E
#40000
0!
0E
#45000
1!
1E
1%
1F
#50000
0!
0E
#55000
1!
1E
19
#60000
0!
0E
#65000
1!
1E
#70000
0!
0E
#75000
1!
1E
#80000
0!
0E
#85000
1!
1E
#90000
0!
0E
#95000
1!
1E
b11110110011100101000110100100111 ;!
b11110111001100011000100101001101 >!
b1110001 =!
1<!
b11110110011100101000110100100111 ?!
b10111000100001100101010110000001 ;!
b10011101011010010111010110001011 >!
b1110100 =!
1<!
b10111000100001100101010110000001 ?!
b100101 w!
b100101 v!
11
b10111100 2
b100110 w!
b10111000100001100101010110000010 ?!
01
b100110 v!
10
11
b10000111 2
b10000111 (
1'
1&
1G
1H
b10000111 I
1J
#100000
0!
0E
#105000
1!
1E
1Q
b1 R
b1 O
1.
b1 ,
0N
0+
1K
b10000111 <
1;
1:
b100111 w!
b10111000100001100101010110000100 ?!
1W
00
01
b100111 v!
b11000101 2
b11000101 (
0'
0&
0G
0H
b11000101 I
0K
0J
#110000
0!
0E
#115000
1!
1E
1B
b1 @
0?
b11000101 <
0;
0:
18
b1 6
05
b101000 w!
b10111000100001100101010110000111 ?!
0W
b101000 v!
10
b1111101 2
b1111101 (
1&
1G
b1111101 I
1J
#120000
0!
0E
#125000
1!
1E
b10 R
b10 O
b10 ,
b1111101 <
1:
b101001 w!
b10111000100001100101010110001011 ?!
1W
00
b101001 v!
11
b111 2
b111 (
1'
0&
0G
1H
b111 I
1K
0J
#130000
0!
0E
#135000
1!
1E
b10000111 L
b1 S
b1 O
b10000111 )
b1 ,
b10 @
b111 <
1;
0:
b10 6
b101010 w!
b10111000100001100101010110010000 ?!
0W
1X
01
b101010 v!
10
11
b10110010 2
b10110010 (
1&
1G
b10110010 I
1J
#140000
0!
0E
#145000
1!
1E
b11 R
b1111101 L
b10 S
b1111101 )
b1 @
b10000111 =
b10110010 <
1:
b1 6
b10000111 3
b101011 w!
b10111000100001100101010110010110 ?!
1W
00
01
b101011 v!
11
b10111100 2
b10111100 (
0&
0G
b10111100 I
0J
#150000
0!
0E
#155000
1!
1E
b10110010 L
b11 S
b0 O
b10110010 )
b0 ,
1N
1+
0K
b1111101 =
b10111100 <
0:
b1111101 3
b101100 w!
b10111000100001100101010110011101 ?!
0W
01
b101100 v!
11
b101110 2
b101110 (
b101110 I
#160000
0!
0E
#165000
1!
1E
b0 @
1?
b10110010 =
b101110 <
b0 6
15
b10110010 3
b101101 w!
b10111000100001100101010110100101 ?!
0X
01
b101101 v!
11
b100 2
b100 (
b100 I
#170000
0!
0E
#175000
1!
1E
b100 <
b101110 w!
b10111000100001100101010110101110 ?!
01
b101110 v!
11
b11000110 2
b11000110 (
b11000110 I
#180000
0!
0E
#185000
1!
1E
b11000110 <
b101111 w!
b10111000100001100101010110111000 ?!
01
b101111 v!
10
b10001100 2
b10001100 (
0'
1&
1G
0H
b10001100 I
1J
#190000
0!
0E
#195000
1!
1E
b100 R
b1 O
b1 ,
0N
0+
b10001100 <
0;
1:
b110000 w!
b10111000100001100101010111000011 ?!
1W
00
b110000 v!
10
b10100 2
b10100 (
b10100 I
#200000
0!
0E
#205000
1!
1E
b101 R
b10 O
b10 ,
b1 @
0?
b10100 <
b1 6
05
b110001 w!
b10111000100001100101010111001111 ?!
00
b110001 v!
11
b10010111 2
b10010111 (
1'
0&
0G
1H
b10010111 I
1K
0J
#210000
0!
0E
#215000
1!
1E
b10001100 L
b100 S
b1 O
b10001100 )
b1 ,
b10 @
b10010111 <
1;
0:
b10 6
b110010 w!
b10111000100001100101010111011100 ?!
0W
1X
01
b110010 v!
10
b1101 2
b1101 (
0'
1&
1G
0H
b1101 I
0K
1J
#220000
0!
0E
#225000
1!
1E
b110 R
b10 O
b10 ,
b1 @
b10001100 =
b1101 <
0;
1:
b1 6
b10001100 3
b110011 w!
b10111000100001100101010111101010 ?!
1W
0X
00
b110011 v!
10
b1011010 2
b1011010 (
b1011010 I
#230000
0!
0E
#235000
1!
1E
b111 R
b11 O
b11 ,
b10 @
b1011010 <
b10 6
b110100 w!
b10111000100001100101010111111001 ?!
00
b110100 v!
10
b11101100 2
b11101100 (
b11101100 I
#240000
0!
0E
#245000
1!
1E
b1000 R
b100 O
b100 ,
b11 @
b11101100 <
b11 6
b110101 w!
b10111000100001100101011000001001 ?!
00
b110101 v!
11
b1001100 2
b1001100 (
1'
0&
0G
1H
b1001100 I
1K
0J
#250000
0!
0E
#255000
1!
1E
b10100 L
b101 S
b11 O
b10100 )
b11 ,
b100 @
b1001100 <
1;
0:
b100 6
b110110 w!
b10111000100001100101011000011010 ?!
0W
1X
01
b110110 v!
11
b1111100 2
b1111100 (
b1111100 I
#260000
0!
0E
#265000
1!
1E
b1101 L
b110 S
b10 O
b1101 )
b10 ,
b11 @
b10100 =
b1111100 <
b11 6
b10100 3
b110111 w!
b10111000100001100101011000101100 ?!
01
b110111 v!
11
b1110010 2
b1110010 (
b1110010 I
#270000
0!
0E
#275000
1!
1E
b1011010 L
b111 S
b1 O
b1011010 )
b1 ,
b10 @
b1101 =
b1110010 <
b10 6
b1101 3
b111000 w!
b10111000100001100101011000111111 ?!
01
b111000 v!
10
b1011111 2
b1011111 (
0'
1&
1G
0H
b1011111 I
0K
1J
#280000
0!
0E
#285000
1!
1E
b1001 R
b10 O
b10 ,
b1 @
b1011010 =
b1011111 <
0;
1:
b1 6
b1011010 3
b111001 w!
b10111000100001100101011001010011 ?!
1W
0X
00
b111001 v!
10
b10000110 2
b10000110 (
b10000110 I
#290000
0!
0E
#295000
1!
1E
b1010 R
b11 O
b11 ,
b10 @
b10000110 <
b10 6
b111010 w!
b10111000100001100101011001101000 ?!
00
b111010 v!
11
b11001011 2
b11001011 (
1'
0&
0G
1H
b11001011 I
1K
0J
#300000
0!
0E
#305000
1!
1E
b11101100 L
b1000 S
b10 O
b11101100 )
b10 ,
b11 @
b11001011 <
1;
0:
b11 6
b111011 w!
b10111000100001100101011001111110 ?!
0W
1X
01
b111011 v!
10
11
b1000111 2
b1000111 (
1&
1G
b1000111 I
1J
#310000
0!
0E
#315000
1!
1E
b1011 R
b1011111 L
b1001 S
b1011111 )
b10 @
b11101100 =
b1000111 <
1:
b10 6
b11101100 3
b111100 w!
b10111000100001100101011010010101 ?!
1W
00
01
b111100 v!
10
b10100001 2
b10100001 (
0'
0H
b10100001 I
0K
#320000
0!
0E
#325000
1!
1E
b1100 R
b11 O
b11 ,
b1011111 =
b10100001 <
0;
b1011111 3
b111101 w!
b10111000100001100101011010101101 ?!
0X
00
b111101 v!
10
11
b11011011 2
b11011011 (
1'
1H
b11011011 I
1K
#330000
0!
0E
#335000
1!
1E
b1101 R
b10000110 L
b1010 S
b10000110 )
b11 @
b11011011 <
1;
b11 6
b111110 w!
b10111000100001100101011011000110 ?!
1X
00
01
b111110 v!
11
b11 2
b11 (
0&
0G
b11 I
0J
#340000
0!
0E
#345000
1!
1E
b1000111 L
b1011 S
b10 O
b1000111 )
b10 ,
b10000110 =
b11 <
0:
b10000110 3
b111111 w!
b10111000100001100101011011100000 ?!
0W
01
b111111 v!
10
b10010 2
b10010 (
0'
1&
1G
0H
b10010 I
0K
1J
#350000
0!
0E
#355000
1!
1E
b1110 R
b11 O
b11 ,
b10 @
b1000111 =
b10010 <
0;
1:
b10 6
b1000111 3
b1000000 w!
b10111000100001100101011011111011 ?!
1W
0X
00
b1000000 v!
10
11
b11100110 2
b11100110 (
1'
1H
b11100110 I
1K
#360000
0!
0E
#365000
1!
1E
b1111 R
b10100001 L
b1100 S
b10100001 )
b11 @
b11100110 <
1;
b11 6
b1000001 w!
b10111000100001100101011100010111 ?!
1X
00
01
b1000001 v!
10
b10001001 2
b10001001 (
0'
0H
b10001001 I
0K
#370000
0!
0E
#375000
1!
1E
b0 R
b100 O
b100 ,
b10100001 =
b10001001 <
0;
b10100001 3
b1000010 w!
b10111000100001100101011100110100 ?!
0X
00
b1000010 v!
10
11
b1111100 2
b1111100 (
1'
1H
b1111100 I
1K
#380000
0!
0E
#385000
1!
1E
b1 R
b11011011 L
b1101 S
b11011011 )
b100 @
b1111100 <
1;
b100 6
b1000011 w!
b10111000100001100101011101010010 ?!
1X
00
01
b1000011 v!
10
11
b110110 2
b110110 (
b110110 I
#390000
0!
0E
#395000
1!
1E
b10 R
b10010 L
b1110 S
b10010 )
b11011011 =
b110110 <
b11011011 3
b1000100 w!
b10111000100001100101011101110001 ?!
00
01
b1000100 v!
11
b10011 2
b10011 (
0&
0G
b10011 I
0J
#400000
0!
0E
#405000
1!
1E
b11100110 L
b1111 S
b11 O
b11100110 )
b11 ,
b10010 =
b10011 <
0:
b10010 3
b1000101 w!
b10111000100001100101011110010001 ?!
0W
01
b1000101 v!
10
b11111110 2
b11111110 (
0'
1&
1G
0H
b11111110 I
0K
1J
#410000
0!
0E
#415000
1!
1E
b11 R
b100 O
b100 ,
b11 @
b11100110 =
b11111110 <
0;
1:
b11 6
b11100110 3
b1000110 w!
b10111000100001100101011110110010 ?!
1W
0X
00
b1000110 v!
10
b10111101 2
b10111101 (
b10111101 I
#420000
0!
0E
#425000
1!
1E
b100 R
b101 O
b101 ,
b100 @
b10111101 <
b100 6
b1000111 w!
b10111000100001100101011111010100 ?!
00
b1000111 v!
11
b0 2
b0 (
1'
0&
0G
1H
b0 I
1K
0J
#430000
0!
0E
#435000
1!
1E
b10001001 L
b0 S
b100 O
b10001001 )
b100 ,
b101 @
b0 <
1;
0:
b101 6
b1001000 w!
b10111000100001100101011111110111 ?!
0W
1X
01
b1001000 v!
10
b11110010 2
b11110010 (
0'
1&
1G
0H
b11110010 I
0K
1J
#440000
0!
0E
#445000
1!
1E
b101 R
b101 O
b101 ,
b100 @
b10001001 =
b11110010 <
0;
1:
b100 6
b10001001 3
b1001001 w!
b10111000100001100101100000011011 ?!
1W
0X
00
b1001001 v!
10
b1101011 2
b1101011 (
b1101011 I
#450000
0!
0E
#455000
1!
1E
b110 R
b110 O
b110 ,
b101 @
b1101011 <
b101 6
b1001010 w!
b10111000100001100101100001000000 ?!
00
b1001010 v!
10
11
b10011000 2
b10011000 (
1'
1H
b10011000 I
1K
#460000
0!
0E
#465000
1!
1E
b111 R
b1111100 L
b1 S
b1111100 )
b110 @
b10011000 <
1;
b110 6
b1001011 w!
b10111000100001100101100001100110 ?!
1X
00
01
b1001011 v!
10
11
b1111101 2
b1111101 (
b1111101 I
#470000
0!
0E
#475000
1!
1E
b1000 R
b110110 L
b10 S
b110110 )
b1111100 =
b1111101 <
b1111100 3
b1001100 w!
b10111000100001100101100010001101 ?!
00
01
b1001100 v!
11
b10101111 2
b10101111 (
0&
0G
b10101111 I
0J
#480000
0!
0E
#485000
1!
1E
b11111110 L
b11 S
b101 O
b11111110 )
b101 ,
b110110 =
b10101111 <
0:
b110110 3
b1001101 w!
b10111000100001100101100010110101 ?!
0W
01
b1001101 v!
11
b101010 2
b101010 (
b101010 I
#490000
0!
0E
#495000
1!
1E
b10111101 L
b100 S
b100 O
b10111101 )
b100 ,
b101 @
b11111110 =
b101010 <
b101 6
b11111110 3
b1001110 w!
b10111000100001100101100011011110 ?!
01
b1001110 v!
11
b1000111 2
b1000111 (
b1000111 I
#500000
0!
0E
#505000
1!
1E
b11110010 L
b101 S
b11 O
b11110010 )
b11 ,
b100 @
b10111101 =
b1000111 <
b100 6
b10111101 3
b1001111 w!
b10111000100001100101100100001000 ?!
01
b1001111 v!
11
b11011010 2
b11011010 (
b11011010 I
#510000
0!
0E
#515000
1!
1E
b1101011 L
b110 S
b10 O
b1101011 )
b10 ,
b11 @
b11110010 =
b11011010 <
b11 6
b11110010 3
b1010000 w!
b10111000100001100101100100110011 ?!
01
b1010000 v!
10
b10001100 2
b10001100 (
0'
1&
1G
0H
b10001100 I
0K
1J
#520000
0!
0E
#525000
1!
1E
b1001 R
b11 O
b11 ,
b10 @
b1101011 =
b10001100 <
0;
1:
b10 6
b1101011 3
b1010001 w!
b10111000100001100101100101011111 ?!
1W
0X
00
b1010001 v!
10
11
b10100100 2
b10100100 (
1'
1H
b10100100 I
1K
#530000
0!
0E
#535000
1!
1E
b1010 R
b10011000 L
b111 S
b10011000 )
b11 @
b10100100 <
1;
b11 6
b1010010 w!
b10111000100001100101100110001100 ?!
1X
00
01
b1010010 v!
10
11
b10101000 2
b10101000 (
b10101000 I
#540000
0!
0E
#545000
1!
1E
b1011 R
b1111101 L
b1000 S
b1111101 )
b10011000 =
b10101000 <
b10011000 3
b1010011 w!
b10111000100001100101100110111010 ?!
00
01
b1010011 v!
11
b10011011 2
b10011011 (
0&
0G
b10011011 I
0J
#550000
0!
0E
#555000
1!
1E
b10001100 L
b1001 S
b10 O
b10001100 )
b10 ,
b1111101 =
b10011011 <
0:
b1111101 3
b1010100 w!
b10111000100001100101100111101001 ?!
0W
01
b1010100 v!
10
b1110110 2
b1110110 (
0'
1&
1G
0H
b1110110 I
0K
1J
#560000
0!
0E
#565000
1!
1E
b1100 R
b11 O
b11 ,
b10 @
b10001100 =
b1110110 <
0;
1:
b10 6
b10001100 3
b1010101 w!
b10111000100001100101101000011001 ?!
1W
0X
00
b1010101 v!
11
b10000010 2
b10000010 (
1'
0&
0G
1H
b10000010 I
1K
0J
#570000
0!
0E
#575000
1!
1E
b10100100 L
b1010 S
b10 O
b10100100 )
b10 ,
b11 @
b10000010 <
1;
0:
b11 6
b1010110 w!
b10111000100001100101101001001010 ?!
0W
1X
01
b1010110 v!
11
b11010100 2
b11010100 (
b11010100 I
#580000
0!
0E
#585000
1!
1E
b10101000 L
b1011 S
b1 O
b10101000 )
b1 ,
b10 @
b10100100 =
b11010100 <
b10 6
b10100100 3
b1010111 w!
b10111000100001100101101001111100 ?!
01
b1010111 v!
10
11
b10011100 2
b10011100 (
1&
1G
b10011100 I
1J
#590000
0!
0E
#595000
1!
1E
b1101 R
b1110110 L
b1100 S
b1110110 )
b1 @
b10101000 =
b10011100 <
1:
b1 6
b10101000 3
b1011000 w!
b10111000100001100101101010101111 ?!
1W
00
01
b1011000 v!
10
11
b100110 2
b100110 (
b100110 I
#600000
0!
0E
#605000
1!
1E
b1110 R
b10011100 L
b1101 S
b10011100 )
b1110110 =
b100110 <
b1110110 3
b1011001 w!
b10111000100001100101101011100011 ?!
00
01
b1011001 v!
10
11
b1011101 2
b1011101 (
b1011101 I
#610000
0!
0E
#615000
1!
1E
b1111 R
b100110 L
b1110 S
b100110 )
b10011100 =
b1011101 <
b10011100 3
b1011010 w!
b10111000100001100101101100011000 ?!
00
01
b1011010 v!
10
b10101110 2
b10101110 (
0'
0H
b10101110 I
0K
#620000
0!
0E
#625000
1!
1E
b0 R
b10 O
b10 ,
b100110 =
b10101110 <
0;
b100110 3
b1011011 w!
b10111000100001100101101101001110 ?!
0X
00
b1011011 v!
10
b11011 2
b11011 (
b11011 I
#630000
0!
0E
#635000
1!
1E
b1 R
b11 O
b11 ,
b10 @
b11011 <
b10 6
b1011100 w!
b10111000100001100101101110000101 ?!
00
b1011100 v!
10
b11110101 2
b11110101 (
b11110101 I
#640000
0!
0E
#645000
1!
1E
b10 R
b100 O
b100 ,
b11 @
b11110101 <
b11 6
b1011101 w!
b10111000100001100101101110111101 ?!
00
b1011101 v!
10
11
b11011100 2
b11011100 (
1'
1H
b11011100 I
1K
#650000
0!
0E
#655000
1!
1E
b11 R
b1011101 L
b1111 S
b1011101 )
b100 @
b11011100 <
1;
b100 6
b1011110 w!
b10111000100001100101101111110110 ?!
1X
00
01
b1011110 v!
10
11
b11110100 2
b11110100 (
b11110100 I
#660000
0!
0E
#665000
1!
1E
b100 R
b10101110 L
b0 S
b10101110 )
b1011101 =
b11110100 <
b1011101 3
b1011111 w!
b10111000100001100101110000110000 ?!
00
01
b1011111 v!
10
11
b11111011 2
b11111011 (
b11111011 I
#670000
0!
0E
#675000
1!
1E
b101 R
b11011 L
b1 S
b11011 )
b10101110 =
b11111011 <
b10101110 3
b1100000 w!
b10111000100001100101110001101011 ?!
00
01
b1100000 v!
10
b1111110 2
b1111110 (
0'
0H
b1111110 I
0K
#680000
0!
0E
#685000
1!
1E
b110 R
b101 O
b101 ,
b11011 =
b1111110 <
0;
b11011 3
b1100001 w!
b10111000100001100101110010100111 ?!
0X
00
b1100001 v!
11
b10100001 2
b10100001 (
1'
0&
0G
1H
b10100001 I
1K
0J
#690000
0!
0E
#695000
1!
1E
b11110101 L
b10 S
b100 O
b11110101 )
b100 ,
b101 @
b10100001 <
1;
0:
b101 6
b1100010 w!
b10111000100001100101110011100100 ?!
0W
1X
01
b1100010 v!
10
b1111 2
b1111 (
0'
1&
1G
0H
b1111 I
0K
1J
#700000
0!
0E
#705000
1!
1E
b111 R
b101 O
b101 ,
b100 @
b11110101 =
b1111 <
0;
1:
b100 6
b11110101 3
b1100011 w!
b10111000100001100101110100100010 ?!
1W
0X
00
b1100011 v!
10
b111111 2
b111111 (
b111111 I
#710000
0!
0E
#715000
1!
1E
b1000 R
b110 O
b110 ,
b101 @
b111111 <
b101 6
b1100100 w!
b10111000100001100101110101100001 ?!
00
b1100100 v!
10
b11000101 2
b11000101 (
b11000101 I
#720000
0!
0E
#725000
1!
1E
b1001 R
b111 O
b111 ,
b110 @
b11000101 <
b110 6
b1100101 w!
b10111000100001100101110110100001 ?!
00
b1100101 v!
11
b1100110 2
b1100110 (
1'
0&
0G
1H
b1100110 I
1K
0J
#730000
0!
0E
#735000
1!
1E
b11011100 L
b11 S
b110 O
b11011100 )
b110 ,
b111 @
b1100110 <
1;
0:
b111 6
b1100110 w!
b10111000100001100101110111100010 ?!
0W
1X
01
b1100110 v!
11
b11000011 2
b11000011 (
b11000011 I
#740000
0!
0E
